[gd_scene load_steps=3 format=2]

[sub_resource type="GDScript" id=1]
script/source = "extends KinematicBody2D

var _thickness	# Racket width
var _size		# Racket height

var _bounds			# The square that determines the dimensions of the 
					# paddle body and its collider
var _drawing_offset # Offset for drawing the paddle in the center of the object

func _ready():
	set_dimentions(15, 60)
	pass

func _draw():
	draw_rect(_bounds, Color.black, true)
	draw_circle(Vector2.ZERO, 1, Color.red)

func set_dimentions(thickness, size):
	_thickness = thickness
	_size = size
	update_dimentions()

# Returns the dimensions of the paddle
func get_dimentions():
	return _bounds.size

# Updates the dimensions and collider 
# of the paddle according to the given
func update_dimentions():
	_drawing_offset = Vector2(-(_thickness / 2), -(_size / 2))
	_bounds = Rect2(
		_drawing_offset,
		Vector2(_thickness, _size))
	$collider.shape.extents = _bounds.size/2
"

[sub_resource type="RectangleShape2D" id=2]

[node name="Rocket" type="KinematicBody2D"]
script = SubResource( 1 )

[node name="collider" type="CollisionShape2D" parent="."]
shape = SubResource( 2 )
