[gd_scene load_steps=3 format=2]

[sub_resource type="GDScript" id=1]
script/source = "extends KinematicBody2D

var _shape = RectangleShape2D.new()

func _ready():
	$collider.shape = _shape
	
func _draw():
	draw_rect(Rect2(-($collider.shape.extents / 2), $collider.shape.extents), Color.black, true)

func set_size(w, h):
	_shape.extents = Vector2(w, h)
"

[sub_resource type="RectangleShape2D" id=2]

[node name="VisualCollider" type="KinematicBody2D"]
script = SubResource( 1 )

[node name="collider" type="CollisionShape2D" parent="."]
shape = SubResource( 2 )
